[gd_scene load_steps=3 format=2]

[ext_resource path="res://components/HealthBar.gd" type="Script" id=1]
[ext_resource path="res://components/Flasher.tscn" type="PackedScene" id=2]

[node name="HealthBar" type="Node2D"]
z_index = 100
script = ExtResource( 1 )

[node name="HealthDisplay" type="ColorRect" parent="."]
margin_left = 3.0
margin_top = 3.0
margin_right = 97.0
margin_bottom = 9.0
color = Color( 0, 1, 0, 1 )

[node name="Border" type="ColorRect" parent="."]
show_behind_parent = true
margin_right = 100.0
margin_bottom = 12.0
color = Color( 0.25, 0.25, 0.25, 1 )

[node name="Background" type="ColorRect" parent="."]
show_behind_parent = true
margin_left = 3.0
margin_top = 3.0
margin_right = 97.0
margin_bottom = 9.0
color = Color( 0, 0, 0, 1 )

[node name="Flasher" parent="." instance=ExtResource( 2 )]
affected_node = NodePath("../HealthDisplay")

